{
    "KPlugin": {
        "BugReportUrl": "https://bugs.kde.org/enter_bug.cgi?product=systemsettings&component=kcm_icons",
        "Description": "Choose icon theme",
        "Description[ar]": "اختر سمة الأيقونة",
        "Description[az]": "İkon mövzusunu seçin",
        "Description[be]": "Выбар тэмы значкоў",
        "Description[bg]": "Изберете тема на иконата",
        "Description[ca@valencia]": "Seleccioneu el tema d'icones",
        "Description[ca]": "Trieu el tema d'icones",
        "Description[cs]": "Vyberte motiv ikon",
        "Description[da]": "Vælg ikontema",
        "Description[de]": "Symbol-Design auswählen",
        "Description[en_GB]": "Choose icon theme",
        "Description[eo]": "Elektu ikonan temon",
        "Description[es]": "Escoger un tema de iconos",
        "Description[et]": "Ikooniteema valimine",
        "Description[eu]": "Aukeratu ikono-gaia",
        "Description[fi]": "Valitse kuvaketeema",
        "Description[fr]": "Sélectionner un thème d'icônes",
        "Description[hi]": "प्रतीक शैली चुनें",
        "Description[hu]": "Ikontéma kiválasztása",
        "Description[ia]": "Selige le thema de icone",
        "Description[id]": "Pilihlah tema ikon",
        "Description[is]": "Veldu táknaþema",
        "Description[it]": "Scegli il tema di icone",
        "Description[ja]": "アイコンテーマを選択",
        "Description[ka]": "ხატულების თემის არჩევა",
        "Description[ko]": "아이콘 테마 선택",
        "Description[lt]": "Pasirinkti piktogramų apipavidalinimą",
        "Description[nl]": "Pictogramthema kiezen",
        "Description[nn]": "Vel ikontema",
        "Description[pa]": "ਆਈਕਾਨ ਥੀਮ ਚੁਣੋ",
        "Description[pl]": "Wybierz zestaw ikon",
        "Description[pt]": "Escolher o tema de ícones",
        "Description[pt_BR]": "Escolha o tema de ícones",
        "Description[ro]": "Alege tematica pictogramelor",
        "Description[ru]": "Выбор набора значков",
        "Description[sk]": "Vybrať tému ikon",
        "Description[sl]": "Izberite temo ikon",
        "Description[sv]": "Välj ikontema",
        "Description[ta]": "சின்னங்களுக்கான திட்டத்தை தேர்ந்தெடுங்கள்",
        "Description[tr]": "Simge teması seçin",
        "Description[uk]": "Вибір теми піктограм",
        "Description[vi]": "Chọn chủ đề của biểu tượng",
        "Description[x-test]": "xxChoose icon themexx",
        "Description[zh_CN]": "选择图标主题",
        "Description[zh_TW]": "選擇圖示主題",
        "FormFactors": [
            "tablet",
            "handset",
            "desktop"
        ],
        "Icon": "preferences-desktop-icons",
        "Name": "Icons",
        "Name[ar]": "الأيقونات",
        "Name[az]": "Nişanlar",
        "Name[be]": "Значкі",
        "Name[bg]": "Икони",
        "Name[ca@valencia]": "Icones",
        "Name[ca]": "Icones",
        "Name[cs]": "Ikony",
        "Name[da]": "Ikoner",
        "Name[de]": "Symbole",
        "Name[en_GB]": "Icons",
        "Name[eo]": "Piktogramo",
        "Name[es]": "Iconos",
        "Name[et]": "Ikoonid",
        "Name[eu]": "Ikonoak",
        "Name[fi]": "Kuvakkeet",
        "Name[fr]": "Icônes",
        "Name[hi]": "प्रतीक",
        "Name[hsb]": "Piktogramy",
        "Name[hu]": "Ikonok",
        "Name[ia]": "Icones",
        "Name[id]": "Ikon",
        "Name[is]": "Tákn",
        "Name[it]": "Icone",
        "Name[ja]": "アイコン",
        "Name[ka]": "ხატულები",
        "Name[ko]": "아이콘",
        "Name[lt]": "Piktogramos",
        "Name[ml]": "ചിഹ്നങ്ങൾ",
        "Name[nl]": "Pictogrammen",
        "Name[nn]": "Ikon",
        "Name[pa]": "ਆਈਕਾਨ",
        "Name[pl]": "Ikony",
        "Name[pt]": "Ícones",
        "Name[pt_BR]": "Ícones",
        "Name[ro]": "Pictograme",
        "Name[ru]": "Значки",
        "Name[sk]": "Ikony",
        "Name[sl]": "Ikone",
        "Name[sv]": "Ikoner",
        "Name[ta]": "சின்னங்கள்",
        "Name[tg]": "Нишонаҳо",
        "Name[tr]": "Simgeler",
        "Name[uk]": "Піктограми",
        "Name[vi]": "Biểu tượng",
        "Name[x-test]": "xxIconsxx",
        "Name[zh_CN]": "图标",
        "Name[zh_TW]": "圖示"
    },
    "X-DocPath": "kcontrol/icons/index.html",
    "X-KDE-Keywords": "icons,effects,size,hicolor,locolor,change icons,buttons,button theme,icon theme,theme,iconography",
    "X-KDE-Keywords[ar]": "أيقونات,تأثيرات,حجم,تغيير الرموز,أزرار,سمة زر,سمة رمز,سمة,أيقونات",
    "X-KDE-Keywords[az]": "icons,effects,size,hicolor,locolor,change icons,buttons,button theme,icon theme,theme,iconography,nişanlar,effektlər,kəskin rənglər,zəif rəng,nişanı dəyişmək,düymələr,düymə mövzusu,nişan mövzusu,mövzu,ikonaqrafiya",
    "X-KDE-Keywords[ca]": "icones,efectes,mida,color alt,color baix,canvi d'icones,botons,tema de botons,tema d'icones,tema,iconografia",
    "X-KDE-Keywords[en_GB]": "icons,effects,size,hicolor,locolor,change icons,buttons,button theme,icon theme,theme,iconography",
    "X-KDE-Keywords[es]": "iconos,efectos,tamaño,hicolor,locolor,cambiar iconos,botones,tema de botones,tema de iconos,tema,iconografía",
    "X-KDE-Keywords[eu]": "ikonoak,efektuak,neurria,sakonera handiko kolorea,sakonera txikiko kolorea,aldatu ikonoak,botoiak,botoien gaia,ikonoen gaia,gaia,ikonografia",
    "X-KDE-Keywords[fi]": "kuvake,kuvakkeet,tehosteet,koko,täysväri,vaihda kuvakkeet,painikkeet,painiketeema,kuvaketeema,teema,ikoni,ikonit",
    "X-KDE-Keywords[fr]": "icônes, effets, taille, couleurs haute définition, couleurs basse définition, changement d'icônes, boutons, thème de boutons, thème d'icônes, thème, iconographie",
    "X-KDE-Keywords[hi]": "प्रतीक,प्रभाव,आकार,है-कलर,लो-कलर,चिह्न बदलना,बटन,बटन प्रसंग,आइकन प्रसंग,थीम,आइकनोग्राफी",
    "X-KDE-Keywords[hu]": "ikonok,effektusok,méret,hicolor,locolor,ikonok cseréje,gombok,gombtéma,ikontéma,téma,ikonográfia",
    "X-KDE-Keywords[ia]": "icones,effectos,grandor,hicolor,locolor,cambia icones,buttones,thema de button, thema de icone,thema,iconographia",
    "X-KDE-Keywords[it]": "icone,effetti,dimensioni,hicolor,locolor,cambia icone,pulsanti,tema pulsanti,tema icone,tema,iconografia",
    "X-KDE-Keywords[ko]": "icons,effects,size,hicolor,locolor,change icons,buttons,button theme,icon theme,theme,iconography,아이콘,효과,크기,색상,아이콘 변경,버튼,단추,단추 테마,아이콘 테마,테마",
    "X-KDE-Keywords[nl]": "pictogrammen,effecten,grootte,hi-kleur,lo-kleur,pictogrammen wijzigen,knoppen,knoppenthema,thema,iconografie",
    "X-KDE-Keywords[nn]": "ikon,effektar,storleik,hicolor,locolor,endra ikon,knappar,knappetema,ikontema,tema,ikonografi",
    "X-KDE-Keywords[pl]": "ikony,efekty,rozmiar,hicolor,locolor,zmiana ikon,przyciski,wygląd przycisków,wygląd ikon,wygląd,ikonografia",
    "X-KDE-Keywords[pt]": "ícones,efeitos,tamanho,muitas cores,poucas cores,mudar os ícones,botões,tema de botões,tema de ícones,tema,iconografia",
    "X-KDE-Keywords[pt_BR]": "ícones,efeitos,tamanho,hicolor,locolor,alterar ícones,botão,tema de botões,tema de ícones,tema,iconografia",
    "X-KDE-Keywords[ru]": "icons,effects,size,hicolor,locolor,change icons,buttons,button theme,icon theme,theme,iconography,значки,эффекты,размер,изменение значков,кнопки,оформление кнопок,темы,оформление",
    "X-KDE-Keywords[sk]": "ikony,efekty,veľkosť,hicolor,locolor,zmena ikon,tlačidlá,téma tlačidiel,téma ikon,téma,ikonografia",
    "X-KDE-Keywords[sl]": "ikone,učinki,svetli toni,temni toni,sprememba ikon,gumbi,tema gumbov,tema ikon,tema,ikonografija",
    "X-KDE-Keywords[sv]": "ikoner,effekter,storlek,många färger,få färger,ändra ikoner,knappar,knapptema,ikontema,tema,ikonografi",
    "X-KDE-Keywords[ta]": "icons,effects,size,hicolor,locolor,change icons,buttons,button theme,icon theme,theme,iconography, சின்னம், சின்னங்கள், பட்டன், பட்டன்கள், மென்மேடு, பொத்தான், தோற்றத்திட்டம், திட்டம், திட்டமுறை",
    "X-KDE-Keywords[uk]": "icons,effects,size,hicolor,locolor,change icons,buttons,button theme,icon theme,theme,iconography,піктограми,значки,іконки,ефекти,розмір,колір,змінити піктограми,кнопки,тема кнопок,тема піктограм,тема значків,тема,піктографія",
    "X-KDE-Keywords[vi]": "icons,effects,size,hicolor,locolor,change icons,buttons,button theme,icon theme,theme,iconography,biểu tượng,hiệu ứng,cỡ,màu cao,màu thấp,thay đổi biểu tượng,nút,chủ đề nút,chủ đề biểu tượng,chủ đề,biểu tượng học",
    "X-KDE-Keywords[x-test]": "xxiconsxx,xxeffectsxx,xxsizexx,xxhicolorxx,xxlocolorxx,xxchange iconsxx,xxbuttonsxx,xxbutton themexx,xxicon themexx,xxthemexx,xxiconographyxx",
    "X-KDE-Keywords[zh_CN]": "icons,effects,size,hicolor,locolor,change icons,buttons,button theme,icon theme,theme,iconography,图标,效果,特效,动效,大小,图标大小,高彩色,低彩色,多颜色,少颜色,更改图标,修改图标,替换图标,按钮,按钮主题,图标主题,主题,图像学",
    "X-KDE-System-Settings-Parent-Category": "appearance",
    "X-KDE-Weight": 60
}
