{
    "KPackageStructure": "Plasma/Wallpaper",
    "KPlugin": {
        "Authors": [
            {
                "Email": "mart@kde.org",
                "Name": "Marco Martin",
                "Name[ar]": "Marco Martin",
                "Name[az]": "Marco Martin",
                "Name[be]": "Marco Martin",
                "Name[bg]": "Марко Мартин",
                "Name[ca@valencia]": "Marco Martin",
                "Name[ca]": "Marco Martin",
                "Name[cs]": "Marco Martin",
                "Name[da]": "Marco Martin",
                "Name[de]": "Marco Martin",
                "Name[en_GB]": "Marco Martin",
                "Name[eo]": "Marco Martin",
                "Name[es]": "Marco Martin",
                "Name[et]": "Marco Martin",
                "Name[eu]": "Marco Martin",
                "Name[fi]": "Marco Martin",
                "Name[fr]": "Marco Martin",
                "Name[gl]": "Marco Martin",
                "Name[hi]": "मार्को मार्टिन",
                "Name[hu]": "Marco Martin",
                "Name[ia]": "Marco Martin",
                "Name[id]": "Marco Martin",
                "Name[is]": "Marco Martin",
                "Name[it]": "Marco Martin",
                "Name[ja]": "Marco Martin",
                "Name[ka]": "მაკრო მარტინი",
                "Name[ko]": "Marco Martin",
                "Name[lt]": "Marco Martin",
                "Name[nl]": "Marco Martin",
                "Name[nn]": "Marco Martin",
                "Name[pa]": "ਮਾਰਕੋ ਮਾਰਟਿਨ",
                "Name[pl]": "Marco Martin",
                "Name[pt]": "Marco Martin",
                "Name[pt_BR]": "Marco Martin",
                "Name[ro]": "Marco Martin",
                "Name[ru]": "Marco Martin",
                "Name[sk]": "Marco Martin",
                "Name[sl]": "Marco Martin",
                "Name[sv]": "Marco Martin",
                "Name[ta]": "மார்க்கோ மார்ட்டின்",
                "Name[tr]": "Marco Martin",
                "Name[uk]": "Marco Martin",
                "Name[vi]": "Marco Martin",
                "Name[x-test]": "xxMarco Martinxx",
                "Name[zh_CN]": "Marco Martin"
            }
        ],
        "Category": "",
        "Description": "Slideshow wallpaper",
        "Description[ar]": "خلفية عرض شرائح",
        "Description[az]": "Dəyişən divar kağızları",
        "Description[be]": "Слайд-шоу шпалер",
        "Description[bg]": "Тапет с прожекция",
        "Description[ca@valencia]": "Passe de diapositives al fons de pantalla",
        "Description[ca]": "Passi de diapositives al fons de pantalla",
        "Description[cs]": "Tapeta s promítáním",
        "Description[da]": "Diasshow som baggrundsbillede",
        "Description[de]": "Diaschau-Hintergrundbild",
        "Description[en_GB]": "Slideshow wallpaper",
        "Description[eo]": "Bildoseria ekranfono",
        "Description[es]": "Fondo de escritorio de presentación",
        "Description[et]": "Slaidiseanss taustapildina",
        "Description[eu]": "Diapositiba emanaldi horma-papera",
        "Description[fi]": "Diaesitystausta",
        "Description[fr]": "Diaporama en fond d'écran ",
        "Description[hi]": "स्लाइड-शो वाॅलपेपर",
        "Description[hu]": "Diabemutató háttérkép",
        "Description[ia]": "Tapete de papiro de Slideshow (Sequentia de diapositivas)",
        "Description[id]": "Wallpaper salindia",
        "Description[is]": "Skyggnusýning veggfóðurs",
        "Description[it]": "Sfondo con presentazione",
        "Description[ja]": "スライドショー壁紙",
        "Description[ka]": "სლაიდშოუს ფონური სურათი",
        "Description[ko]": "슬라이드 쇼를 배경 그림으로 사용",
        "Description[lt]": "Skaidrių rodymo darbalaukio fonas",
        "Description[nl]": "Achtergrond met diavoorstelling",
        "Description[nn]": "Lysbiletvising-bakgrunn",
        "Description[pa]": "ਸਲਾਈਡ-ਸ਼ੋ ਵਾਲਪੇਪਰ",
        "Description[pl]": "Tapeta pokazu slajdów",
        "Description[pt]": "Papel de parede da apresentação",
        "Description[pt_BR]": "Papel de parede com apresentação de slides",
        "Description[ro]": "Tapet cu diaporamă",
        "Description[ru]": "Слайд-шоу на месте обоев",
        "Description[sk]": "Tapeta prezentácia",
        "Description[sl]": "Slike ozadja v predstavitvi",
        "Description[sv]": "Skrivbordsunderlägg med bildspel",
        "Description[ta]": "வில்லைக்காட்சி (slideshow) பின்புலம்",
        "Description[tr]": "Slayt gösterisi duvar kağıdı",
        "Description[uk]": "Тло у форматі показу слайдів",
        "Description[vi]": "Phông nền dạng chuỗi trình chiếu",
        "Description[x-test]": "xxSlideshow wallpaperxx",
        "Description[zh_CN]": "幻灯片壁纸",
        "Description[zh_TW]": "投影播放桌布",
        "Icon": "folder-image",
        "Id": "org.kde.slideshow",
        "License": "GPLv2+",
        "MimeTypes": [
            "image/jpeg",
            "image/png",
            "image/svg+xml",
            "image/svg+xml-compressed",
            "image/bmp",
            "image/webp",
            "image/tiff"
        ],
        "Name": "Slideshow",
        "Name[ar]": "عرض شرائح",
        "Name[az]": "Dəyişən Şəkillər",
        "Name[be@latin]": "Słajdy",
        "Name[be]": "Слайд-шоу",
        "Name[bg]": "Прожекция",
        "Name[bn]": "স্লাইড-শো",
        "Name[bn_IN]": "স্লাইড-শো",
        "Name[bs]": "Slajd‑šou",
        "Name[ca@valencia]": "Passe de diapositives",
        "Name[ca]": "Passi de diapositives",
        "Name[cs]": "Promítání",
        "Name[csb]": "Pòkôz slajdów",
        "Name[da]": "Diasshow",
        "Name[de]": "Diaschau",
        "Name[el]": "Προβολή σλάιντ",
        "Name[en_GB]": "Slideshow",
        "Name[eo]": "Bildoserio",
        "Name[es]": "Presentación",
        "Name[et]": "Slaidiseanss",
        "Name[eu]": "Filmina erakusketa",
        "Name[fi]": "Diaesitys",
        "Name[fr]": "Diaporama",
        "Name[fy]": "Diafoarstelling",
        "Name[ga]": "Taispeántas Sleamhnán",
        "Name[gl]": "Presentación",
        "Name[gu]": "સ્લાઇડશો",
        "Name[he]": "מצגת",
        "Name[hi]": "स्लाइड-शो",
        "Name[hne]": "स्लाइडसो",
        "Name[hr]": "Prezentacija",
        "Name[hu]": "Diabemutató",
        "Name[ia]": "Slideshow (Sequentia de diapositivas)",
        "Name[id]": "Slideshow",
        "Name[is]": "Skyggnusýning",
        "Name[it]": "Presentazione",
        "Name[ja]": "スライドショー",
        "Name[ka]": "სლაიდშოუ",
        "Name[kk]": "Слайд көрсетілімі",
        "Name[km]": "បញ្ចាំង​ស្លាយ",
        "Name[kn]": "ಚಿತ್ರಫಲಕ ಪ್ರದರ್ಶನ (ಸ್ಲೈಡ್ ಶೋ)",
        "Name[ko]": "슬라이드 쇼",
        "Name[ku]": "NîşandanaSlaydê",
        "Name[lt]": "Skaidrių rodymas",
        "Name[lv]": "Slīdrāde",
        "Name[mai]": "स्लाइडशो",
        "Name[mk]": "Слајдшоу",
        "Name[ml]": "മാറുന്ന ചിത്രങ്ങള്‍",
        "Name[mr]": "स्लाइडशो",
        "Name[nb]": "Lysbildevisning",
        "Name[nds]": "Diaschau",
        "Name[nl]": "Diavoorstelling",
        "Name[nn]": "Lysbiletvising",
        "Name[or]": "ସ୍ଲାଇଡ଼ ଦୃଶ୍ୟ",
        "Name[pa]": "ਸਲਾਈਡ-ਸ਼ੋ",
        "Name[pl]": "Pokaz slajdów",
        "Name[pt]": "Apresentação",
        "Name[pt_BR]": "Apresentação de slides",
        "Name[ro]": "Diaporamă",
        "Name[ru]": "Слайд-шоу",
        "Name[si]": "ස්ලයිඩ් දසුන",
        "Name[sk]": "Prezentácia",
        "Name[sl]": "Predstavitev",
        "Name[sr@ijekavian]": "слајд‑шоу",
        "Name[sr@ijekavianlatin]": "slajd‑šou",
        "Name[sr@latin]": "slajd‑šou",
        "Name[sr]": "слајд‑шоу",
        "Name[sv]": "Bildspel",
        "Name[ta]": "வில்லைக்காட்சி",
        "Name[th]": "นำเสนอภาพนิ่ง",
        "Name[tr]": "Slayt Gösterisi",
        "Name[ug]": "تام تەسۋىرى",
        "Name[uk]": "Показ слайдів",
        "Name[vi]": "Chuỗi trình chiếu",
        "Name[wa]": "Diaporama",
        "Name[x-test]": "xxSlideshowxx",
        "Name[zh_CN]": "幻灯片",
        "Name[zh_TW]": "投影播放",
        "Website": "https://kde.org/plasma-desktop"
    },
    "Keywords": "",
    "MimeType": "image/avif;image/gif;image/heif;image/jpeg;image/png;image/svg+xml;image/svg+xml-compressed;image/bmp;image/webp;image/tiff;",
    "X-KDE-ParentApp": "org.kde.plasmashell",
    "X-Plasma-DropMimeTypes": [
        "image/avif",
        "image/gif",
        "image/heif",
        "image/jpeg",
        "image/png",
        "image/svg+xml",
        "image/svg+xml-compressed",
        "image/bmp",
        "image/webp",
        "image/tiff"
    ]
}
