{
    "KPackageStructure": "Plasma/Wallpaper",
    "KPlugin": {
        "Authors": [
            {
                "Email": "mart@kde.org",
                "Name": "Marco Martin",
                "Name[ar]": "Marco Martin",
                "Name[az]": "Marco Martin",
                "Name[be]": "Marco Martin",
                "Name[bg]": "Марко Мартин",
                "Name[ca@valencia]": "Marco Martin",
                "Name[ca]": "Marco Martin",
                "Name[cs]": "Marco Martin",
                "Name[da]": "Marco Martin",
                "Name[de]": "Marco Martin",
                "Name[en_GB]": "Marco Martin",
                "Name[eo]": "Marco Martin",
                "Name[es]": "Marco Martin",
                "Name[et]": "Marco Martin",
                "Name[eu]": "Marco Martin",
                "Name[fi]": "Marco Martin",
                "Name[fr]": "Marco Martin",
                "Name[gl]": "Marco Martin",
                "Name[hi]": "मार्को मार्टिन",
                "Name[hu]": "Marco Martin",
                "Name[ia]": "Marco Martin",
                "Name[id]": "Marco Martin",
                "Name[is]": "Marco Martin",
                "Name[it]": "Marco Martin",
                "Name[ja]": "Marco Martin",
                "Name[ka]": "მაკრო მარტინი",
                "Name[ko]": "Marco Martin",
                "Name[lt]": "Marco Martin",
                "Name[nl]": "Marco Martin",
                "Name[nn]": "Marco Martin",
                "Name[pa]": "ਮਾਰਕੋ ਮਾਰਟਿਨ",
                "Name[pl]": "Marco Martin",
                "Name[pt]": "Marco Martin",
                "Name[pt_BR]": "Marco Martin",
                "Name[ro]": "Marco Martin",
                "Name[ru]": "Marco Martin",
                "Name[sk]": "Marco Martin",
                "Name[sl]": "Marco Martin",
                "Name[sv]": "Marco Martin",
                "Name[ta]": "மார்க்கோ மார்ட்டின்",
                "Name[tr]": "Marco Martin",
                "Name[uk]": "Marco Martin",
                "Name[vi]": "Marco Martin",
                "Name[x-test]": "xxMarco Martinxx",
                "Name[zh_CN]": "Marco Martin"
            }
        ],
        "Category": "",
        "Description": "Wallpaper view for images",
        "Description[ar]": "عرض خلفيات للصور",
        "Description[az]": "Şəkillərin divar kağızı kimi görünüşü",
        "Description[be]": "Шпалеры з выяў",
        "Description[bg]": "Тапетни изображения",
        "Description[ca@valencia]": "Vista del fons de pantalla per a les imatges",
        "Description[ca]": "Vista del fons de pantalla per a les imatges",
        "Description[da]": "Baggrundsbilledevisning til billeder",
        "Description[de]": "Ansicht für Hintergrundbilder",
        "Description[en_GB]": "Wallpaper view for images",
        "Description[eo]": "Tapeta vido por bildoj",
        "Description[es]": "Visor de imágenes para el fondo del escritorio",
        "Description[et]": "Pildid taustapildina",
        "Description[eu]": "Irudientzako horma-paper ikuspegia",
        "Description[fi]": "Kuvien taustakuvanäkymä",
        "Description[fr]": "Affichage d'images en fond d'écran",
        "Description[hi]": "छवियों के लिए वॉलपेपर दृश्य",
        "Description[hu]": "Háttérkép nézet képekhez",
        "Description[ia]": "Vista de tapete de papiro per images",
        "Description[id]": "Tampilan wallpaper untuk citra",
        "Description[is]": "Veggfóðursyfirlit fyrir myndir",
        "Description[it]": "Vista delle immagini di sfondo",
        "Description[ja]": "画像の壁紙ビュー",
        "Description[ka]": "ფონური სურათის ხედი გამოსახულებებისთვის",
        "Description[ko]": "마음에 드는 그림을 배경으로 사용",
        "Description[lt]": "Darbalaukio fono rodinys su paveikslais",
        "Description[nl]": "Achtergrondweergave voor afbeeldingen",
        "Description[nn]": "Bakgrunnsbiletevising for bilete",
        "Description[pa]": "ਚਿੱਤਰਾਂ ਲਈ ਵਾਲਪੇਪਰ ਝਲਕ",
        "Description[pl]": "Widok tapety dla obrazów",
        "Description[pt]": "Área de imagens do Papel de Parede",
        "Description[pt_BR]": "Visualização do papel de parede para imagens",
        "Description[ro]": "Vizualizare de tapet pentru imagini",
        "Description[ru]": "Изображение в качестве обоев рабочего стола",
        "Description[sk]": "Pohľad tapety pre obrázky",
        "Description[sl]": "Pogled slike ozadja za slike",
        "Description[sv]": "Skrivbordsunderlägg med bilder",
        "Description[ta]": "படங்களை பயன்படுத்தக் கூடிய ஒரு பின்புலம்",
        "Description[tr]": "Görseller için duvar kağıdı görünümü",
        "Description[uk]": "Тло із зображень",
        "Description[vi]": "Khung xem phông nền cho các ảnh",
        "Description[x-test]": "xxWallpaper view for imagesxx",
        "Description[zh_CN]": "图像壁纸视图",
        "Description[zh_TW]": "使用圖片的桌布檢視",
        "Icon": "preferences-desktop-wallpaper",
        "Id": "org.kde.image",
        "License": "GPLv2+",
        "MimeTypes": [
            "image/jpeg",
            "image/png",
            "image/svg+xml",
            "image/svg+xml-compressed",
            "image/bmp",
            "image/webp",
            "image/tiff"
        ],
        "Name": "Image",
        "Name[ar]": "صورة",
        "Name[az]": "Şəkil",
        "Name[be@latin]": "Vyjava",
        "Name[be]": "Выява",
        "Name[bg]": "Изображение",
        "Name[bn]": "ছবি",
        "Name[bn_IN]": "ছবি",
        "Name[bs]": "Slika",
        "Name[ca@valencia]": "Imatge",
        "Name[ca]": "Imatge",
        "Name[cs]": "Obrázek",
        "Name[csb]": "Òbrôzk",
        "Name[da]": "Billede",
        "Name[de]": "Bild",
        "Name[el]": "Εικόνα",
        "Name[en_GB]": "Image",
        "Name[eo]": "Bildo",
        "Name[es]": "Imagen",
        "Name[et]": "Pilt",
        "Name[eu]": "Irudia",
        "Name[fa]": "تصویر",
        "Name[fi]": "Kuva",
        "Name[fr]": "Image",
        "Name[fy]": "Ofbylding",
        "Name[ga]": "Íomhá",
        "Name[gl]": "Imaxe",
        "Name[gu]": "ચિત્ર",
        "Name[he]": "תמונה",
        "Name[hi]": "छवि",
        "Name[hne]": "फोटो",
        "Name[hr]": "Slika",
        "Name[hsb]": "Wobraz",
        "Name[hu]": "Kép",
        "Name[ia]": "Image",
        "Name[id]": "Citra",
        "Name[is]": "Mynd",
        "Name[it]": "Immagine",
        "Name[ja]": "画像",
        "Name[ka]": "გამოსახულება",
        "Name[kk]": "Кескіні",
        "Name[km]": "រូបភាព",
        "Name[kn]": "ಬಿಂಬ (ಇಮೇಜ್)",
        "Name[ko]": "그림",
        "Name[ku]": "Wêne",
        "Name[lt]": "Paveikslas",
        "Name[lv]": "Attēls",
        "Name[mai]": "चित्र",
        "Name[mk]": "Слика",
        "Name[ml]": "ചിത്രം",
        "Name[mr]": "प्रतिमा",
        "Name[nb]": "Bilde",
        "Name[nds]": "Bild",
        "Name[nl]": "Afbeelding",
        "Name[nn]": "Bilete",
        "Name[or]": "ପ୍ରତିଛବି",
        "Name[pa]": "ਚਿੱਤਰ",
        "Name[pl]": "Obraz",
        "Name[pt]": "Imagem",
        "Name[pt_BR]": "Imagem",
        "Name[ro]": "Imagine",
        "Name[ru]": "Изображение",
        "Name[si]": "පිංතූරය",
        "Name[sk]": "Obrázok",
        "Name[sl]": "Slika",
        "Name[sr@ijekavian]": "слика",
        "Name[sr@ijekavianlatin]": "slika",
        "Name[sr@latin]": "slika",
        "Name[sr]": "слика",
        "Name[sv]": "Bild",
        "Name[ta]": "படம்",
        "Name[tg]": "Тасвир",
        "Name[th]": "ภาพ",
        "Name[tr]": "Görsel",
        "Name[ug]": "سۈرەت",
        "Name[uk]": "Зображення",
        "Name[vi]": "Ảnh",
        "Name[wa]": "Imådje",
        "Name[x-test]": "xxImagexx",
        "Name[zh_CN]": "图像",
        "Name[zh_TW]": "影像",
        "Website": "https://kde.org/plasma-desktop"
    },
    "Keywords": "",
    "MimeType": "image/avif;image/gif;image/heif;image/jpeg;image/png;image/svg+xml;image/svg+xml-compressed;image/bmp;image/webp;image/tiff;",
    "X-KDE-ParentApp": "org.kde.plasmashell",
    "X-Plasma-DropMimeTypes": [
        "image/avif",
        "image/gif",
        "image/heif",
        "image/jpeg",
        "image/png",
        "image/svg+xml",
        "image/svg+xml-compressed",
        "image/bmp",
        "image/webp",
        "image/tiff"
    ]
}
